{
    "@class": "com.kony.gen.viz.model.component.KVizButton",
    "DNDConfig": null,
    "__parentReadjusting__": false,
    "_height_": {
        "type": "string",
        "value": "60dp"
    },
    "_left_": {
        "type": "string",
        "value": "25dp"
    },
    "_margin_": [
        6,
        6,
        6,
        6
    ],
    "_padding_": [
        0,
        0,
        0,
        0
    ],
    "_skin_": "s555db80b04344769f89ea2145c30b2e",
    "_text_": "Next",
    "_width_": {
        "type": "string",
        "value": "200dp"
    },
    "canUpdateUI": true,
    "centery": {
        "type": "string",
        "value": "50%"
    },
    "containerweight": 100,
    "contentalignment": 5,
    "displaytext": true,
    "focusskin": "s279adf76da84420ada7167f37a374cf",
    "id": "btnNext",
    "info": null,
    "iscustomlayout": false,
    "isvisible": true,
    "kuid": "ua6348ca3c8c402c94c5bf86a025dff4",
    "name": "kony.ui.Button",
    "parent": "sectionsubmitCopy1",
    "pf": "userwidgetmodel",
    "retaincontentalignment": false,
    "retainflexpositionproperties": false,
    "wType": "Button",
    "zindex": 1
}