{
    "background_color": "ffffffff",
    "bg_type": "one",
    "border_color": "ffffff00",
    "border_style": "rc",
    "border_type": 0,
    "border_width": 1,
    "desktopweb": {
        "bottom_left_border_color": "ffffff00",
        "bottom_left_border_radius": 10,
        "bottom_left_border_style": "rc",
        "bottom_left_border_width": 1,
        "bottom_right_border_color": "ffffff00",
        "bottom_right_border_radius": 10,
        "bottom_right_border_style": "rc",
        "bottom_right_border_width": 1,
        "isForked": true,
        "top_left_border_color": "ffffff00",
        "top_left_border_radius": 10,
        "top_left_border_style": "rc",
        "top_left_border_width": 1,
        "top_right_border_color": "ffffff00",
        "top_right_border_radius": 10,
        "top_right_border_style": "rc",
        "top_right_border_width": 1
    },
    "isDefaultSkin": false,
    "kuid": "s52765c2498549e993cca2f6f99ac8fc",
    "wType": "FlexContainer"
}