{
  "android": {
    "font_color": "707070ff",
    "font_name": "Helvetica",
    "font_size": 100,
    "font_style": "normal",
    "font_weight": "normal",
    "isForked": true,
    "text_shadow": {
      "br": 0,
      "color": "000000",
      "opacity": 1,
      "x": 0,
      "y": 0
    }
  },
  "androidwearos": {
    "font_color": "707070ff",
    "font_name": "Helvetica",
    "font_size": 100,
    "font_style": "normal",
    "font_weight": "normal",
    "isForked": true,
    "text_shadow": {
      "br": 0,
      "color": "000000",
      "opacity": 1,
      "x": 0,
      "y": 0
    }
  },
  "background_color": "00000000",
  "bg_type": "one",
  "border_color": "424242ff",
  "border_style": "plain",
  "border_type": 0,
  "border_width": 0,
  "delinkedPltfrms": {
    "androidwear": [],
    "desktop": [],
    "mobile": [],
    "tablet": [],
    "watch": []
  },
  "desktopweb": {
    "border_type": 0,
    "bottom_left_border_color": "424242ff",
    "bottom_left_border_style": "plain",
    "bottom_left_border_width": "0",
    "bottom_right_border_color": "949494ff",
    "bottom_right_border_style": "plain",
    "bottom_right_border_width": "0",
    "font_color": "707070ff",
    "font_name": "Lato-Regular",
    "font_size": 100,
    "font_style": "normal",
    "font_weight": "normal",
    "isForked": true,
    "text_shadow": {
      "br": 0,
      "color": "000000",
      "opacity": 1,
      "x": 0,
      "y": 0
    },
    "top_left_border_color": "424242ff",
    "top_left_border_style": "plain",
    "top_left_border_width": "0",
    "top_right_border_color": "424242ff",
    "top_right_border_style": "plain",
    "top_right_border_width": "0"
  },
  "fontSizeInPx": false,
  "font_color": "333333ff",
  "font_name": "iphoneSystem",
  "font_size": 100,
  "font_style": "normal",
  "font_weight": "400",
  "ipad": {
    "font_color": "707070ff",
    "font_name": "Helvetica",
    "font_size": 100,
    "isForked": true,
    "text_shadow": {
      "br": 0,
      "color": "000000",
      "opacity": 1,
      "x": 0,
      "y": 0
    }
  },
  "iphone": {
    "font_color": "707070ff",
    "font_name": "Helvetica",
    "font_size": 100,
    "isForked": true,
    "text_shadow": {
      "br": 0,
      "color": "000000",
      "opacity": 1,
      "x": 0,
      "y": 0
    }
  },
  "isDefaultSkin": false,
  "kiosk": {
    "font_color": "707070ff",
    "font_name": "None",
    "font_size": 100,
    "font_style": "normal",
    "font_weight": "normal",
    "isForked": true
  },
  "kuid": "s0a85f41b35d417f8371d3cc21c41816",
  "spaan": {
    "border_type": 0,
    "bottom_left_border_color": "424242ff",
    "bottom_left_border_style": "plain",
    "bottom_left_border_width": 0,
    "bottom_right_border_color": "949494ff",
    "bottom_right_border_style": "plain",
    "bottom_right_border_width": "1",
    "font_color": "707070ff",
    "font_name": "Helvetica",
    "font_size": 100,
    "font_style": "normal",
    "font_weight": "normal",
    "isForked": true,
    "text_shadow": {
      "br": 0,
      "color": "000000",
      "opacity": 1,
      "x": 0,
      "y": 0
    },
    "top_left_border_color": "424242ff",
    "top_left_border_style": "plain",
    "top_left_border_width": "0",
    "top_right_border_color": "424242ff",
    "top_right_border_style": "plain",
    "top_right_border_width": 0
  },
  "spaandroidtablet": {
    "border_type": 0,
    "bottom_left_border_color": "424242ff",
    "bottom_left_border_style": "plain",
    "bottom_left_border_width": 0,
    "bottom_right_border_color": "949494ff",
    "bottom_right_border_style": "plain",
    "bottom_right_border_width": "1",
    "font_color": "707070ff",
    "font_name": "Helvetica",
    "font_size": 100,
    "font_style": "normal",
    "font_weight": "normal",
    "isForked": true,
    "text_shadow": {
      "br": 0,
      "color": "000000",
      "opacity": 1,
      "x": 0,
      "y": 0
    },
    "top_left_border_color": "424242ff",
    "top_left_border_style": "plain",
    "top_left_border_width": "0",
    "top_right_border_color": "424242ff",
    "top_right_border_style": "plain",
    "top_right_border_width": 0
  },
  "spaip": {
    "border_type": 0,
    "bottom_left_border_color": "424242ff",
    "bottom_left_border_style": "plain",
    "bottom_left_border_width": 0,
    "bottom_right_border_color": "949494ff",
    "bottom_right_border_style": "plain",
    "bottom_right_border_width": "1",
    "font_color": "707070ff",
    "font_name": "Helvetica",
    "font_size": 100,
    "font_style": "normal",
    "font_weight": "normal",
    "isForked": true,
    "text_shadow": {
      "br": 0,
      "color": "000000",
      "opacity": 1,
      "x": 0,
      "y": 0
    },
    "top_left_border_color": "424242ff",
    "top_left_border_style": "plain",
    "top_left_border_width": "0",
    "top_right_border_color": "424242ff",
    "top_right_border_style": "plain",
    "top_right_border_width": 0
  },
  "spaipad": {
    "border_type": 0,
    "bottom_left_border_color": "424242ff",
    "bottom_left_border_style": "plain",
    "bottom_left_border_width": 0,
    "bottom_right_border_color": "949494ff",
    "bottom_right_border_style": "plain",
    "bottom_right_border_width": "1",
    "font_color": "707070ff",
    "font_name": "Helvetica",
    "font_size": 100,
    "font_style": "normal",
    "font_weight": "normal",
    "isForked": true,
    "text_shadow": {
      "br": 0,
      "color": "000000",
      "opacity": 1,
      "x": 0,
      "y": 0
    },
    "top_left_border_color": "424242ff",
    "top_left_border_style": "plain",
    "top_left_border_width": "0",
    "top_right_border_color": "424242ff",
    "top_right_border_style": "plain",
    "top_right_border_width": 0
  },
  "spawindowstablet": {
    "border_type": 0,
    "bottom_left_border_color": "424242ff",
    "bottom_left_border_style": "plain",
    "bottom_left_border_width": 0,
    "bottom_right_border_color": "949494ff",
    "bottom_right_border_style": "plain",
    "bottom_right_border_width": "1",
    "font_color": "707070ff",
    "font_name": "Helvetica",
    "font_size": 100,
    "font_style": "normal",
    "font_weight": "normal",
    "isForked": true,
    "text_shadow": {
      "br": 0,
      "color": "000000",
      "opacity": 1,
      "x": 0,
      "y": 0
    },
    "top_left_border_color": "424242ff",
    "top_left_border_style": "plain",
    "top_left_border_width": "0",
    "top_right_border_color": "424242ff",
    "top_right_border_style": "plain",
    "top_right_border_width": 0
  },
  "spawinphone8": {
    "border_type": 0,
    "bottom_left_border_color": "424242ff",
    "bottom_left_border_style": "plain",
    "bottom_left_border_width": 0,
    "bottom_right_border_color": "949494ff",
    "bottom_right_border_style": "plain",
    "bottom_right_border_width": "1",
    "font_color": "707070ff",
    "font_name": "Helvetica",
    "font_size": 100,
    "font_style": "normal",
    "font_weight": "normal",
    "isForked": true,
    "text_shadow": {
      "br": 0,
      "color": "000000",
      "opacity": 1,
      "x": 0,
      "y": 0
    },
    "top_left_border_color": "424242ff",
    "top_left_border_style": "plain",
    "top_left_border_width": "0",
    "top_right_border_color": "424242ff",
    "top_right_border_style": "plain",
    "top_right_border_width": 0
  },
  "tabrcandroid": {
    "font_color": "707070ff",
    "font_name": "Helvetica",
    "font_size": 100,
    "font_style": "normal",
    "font_weight": "normal",
    "isForked": true,
    "text_shadow": {
      "br": 0,
      "color": "000000",
      "opacity": 1,
      "x": 0,
      "y": 0
    }
  },
  "wType": "Label",
  "watchos": {
    "font_color": "707070ff",
    "font_name": "Helvetica",
    "font_size": 100,
    "font_weight": "normal",
    "isForked": true
  },
  "windows8": {
    "font_color": "707070ff",
    "font_name": "None",
    "font_size": 100,
    "font_style": "normal",
    "font_weight": "normal",
    "isForked": true
  },
  "winphone8": {
    "font_color": "707070ff",
    "font_name": "None",
    "font_size": 100,
    "font_style": "normal",
    "font_weight": "normal",
    "isForked": true
  }
}