{
    "@class": "com.kony.gen.viz.model.component.KVizUserWidget",
    "DNDConfig": null,
    "_children_": [],
    "_height_": {
        "type": "string",
        "value": "15%"
    },
    "_left_": {
        "type": "string",
        "value": "0dp"
    },
    "_margin_": [
        0,
        0,
        0,
        0
    ],
    "_orientation_": 1,
    "_padding_": [
        0,
        0,
        0,
        0
    ],
    "_percent_": true,
    "_skin_": "se3ba01a41b84cf8ac57201b98ee3ec5",
    "_top_": {
        "type": "string",
        "value": "0dp"
    },
    "_width_": {
        "type": "string",
        "value": "100%"
    },
    "areflexpropsreferenced": false,
    "autogrowmode": 0,
    "canUpdateUI": true,
    "clipbounds": true,
    "containerweight": 0,
    "dataDiffs": {
        "lblSectionHeader": {
            "__events__": {},
            "__info__": {
                "kuid": "f5d91bef41b443589ce76e8e88cd8fe2",
                "srcKUID": "u360a22566e94779a8e67ae43bbb410f",
                "wType": "Label"
            },
            "responsiveData": {
                "b1": {
                    "text": "Application Status"
                },
                "b2": {
                    "text": "Application Status"
                },
                "b3": {
                    "text": "Application Status"
                }
            },
            "text": "Terms And Conditions"
        },
        "lblStepIndicator": {
            "__events__": {},
            "__info__": {
                "kuid": "i81bfc5b1f64435ca09411cfcc12947c",
                "srcKUID": "ud659fa8dc5a455995ced5c72951c9ef",
                "wType": "Label"
            },
            "isVisible": true,
            "responsiveData": {
                "b1": {
                    "isVisible": false
                },
                "b2": {
                    "isVisible": false
                },
                "b3": {
                    "isVisible": false,
                    "text": "Final step"
                }
            },
            "text": "You are at the final step"
        },
        "sectionheaderCopy3": {
            "__events__": {},
            "__info__": {
                "isRoot": true,
                "kuid": "be018b585062452d845a100bdb1cde79",
                "srcKUID": "u9dbd0f6cb304172a3349d9bfe027506",
                "wType": "FlexContainer"
            }
        }
    },
    "enablescrolling": true,
    "id": "sectionheader",
    "info": null,
    "iscustomlayout": false,
    "isdatareferenced": false,
    "isvisible": true,
    "kuid": "be018b585062452d845a100bdb1cde79",
    "layouttype": 2,
    "masterType": 0,
    "name": "kony.ui.UserWidgetInstance",
    "parent": "flexMainContent",
    "pf": "frmAcknowledgement",
    "retaincontentalignment": false,
    "retainflexpositionproperties": false,
    "retainflowhorizontalalignment": false,
    "snapgridsize": 10,
    "snaptogrid": true,
    "sourceUserWidget": "u9dbd0f6cb304172a3349d9bfe027506",
    "wType": "UserWidgetInstance"
}