{
    "AS_AppEvents_f4249f085d024aa0b9cd0e9ce2f93d23": {
        "id": "AS_AppEvents_f4249f085d024aa0b9cd0e9ce2f93d23",
        "type": "ACTION_SEQUENCE",
        "params": [{
            "datatype": "collection",
            "name": "eventobject"
        }],
        "language": "js",
        "actions": [{
            "id": "ADD_SNIPPET_e28a2486dc35472392f69639d0f641f7",
            "type": "ADD_SNIPPET",
            "codeSnippet": "/*\n* Set GlobalExceptionHandler. Load ApplicationManager and get the unique instance of ApplicationManager. Save the instance of ApplicationManager in a global variable\n*/\nkony.lang.setUncaughtExceptionHandler(GlobalExceptionHandler.exceptionHandler);\ntry\n{\n  var ApplicationManager = require('ApplicationManager');\n  applicationManager = ApplicationManager.getApplicationManager();\n \n}\ncatch(err) {\n  throw GlobalExceptionHandler.addMessageAndActionForException(err, \n  \t\"kony.error.App_Initialisation_Failed\",GlobalExceptionHandler.ActionConstants.BLOCK,\n  \targuments.callee.name);\n}",
            "parentId": null
        }]
    }
}