{
    "AS_Button_e0c6d969f3c144a1acceba114327d829": {
        "id": "AS_Button_e0c6d969f3c144a1acceba114327d829",
        "type": "ACTION_SEQUENCE",
        "params": [{
            "datatype": "collection",
            "name": "eventobject"
        }],
        "contextObj": {
            "name": "frmTermsAndConditions",
            "type": "forms",
            "platform": "",
            "KUID": "d7d9ea438a72410d9d06495a9f4262f2"
        },
        "language": "js",
        "actions": [{
            "id": "ADD_SNIPPET_ea7786636b9649e08b5626c3b8271200",
            "type": "ADD_SNIPPET",
            "codeSnippet": "this.submitDetails();",
            "parentId": null
        }]
    }
}