{
    "AS_Form_c1422b23614b40a287cd1c378f09c214": {
        "id": "AS_Form_c1422b23614b40a287cd1c378f09c214",
        "type": "ACTION_SEQUENCE",
        "params": [{
            "datatype": "collection",
            "name": "eventobject"
        }],
        "contextObj": {
            "name": "frmPartyPersonalDetails",
            "type": "forms",
            "platform": "",
            "KUID": "ffe67c2169e14510946c4f1269393fa1"
        },
        "language": "js",
        "actions": [{
            "id": "ADD_SNIPPET_a9e38ab6ab354e42a99c7386d98128b8",
            "type": "ADD_SNIPPET",
            "codeSnippet": "this.getOccupationList();",
            "parentId": null
        }]
    }
}