{
    "AS_TextField_ad271c6ced9141b6828f9fc31380a704": {
        "id": "AS_TextField_ad271c6ced9141b6828f9fc31380a704",
        "type": "ACTION_SEQUENCE",
        "params": [{
            "datatype": "collection",
            "name": "eventobject"
        }, {
            "datatype": "string",
            "name": "changedtext"
        }],
        "contextObj": {
            "name": "frmPartyPersonalDetails",
            "type": "forms",
            "platform": "",
            "KUID": "ffe67c2169e14510946c4f1269393fa1"
        },
        "language": "js",
        "actions": [{
            "id": "ADD_SNIPPET_ca116bb95375427db4687a1bd7450fc2",
            "type": "ADD_SNIPPET",
            "codeSnippet": "this.hidePhoneNumberErrorDisplay();",
            "parentId": null
        }]
    }
}