{
    "@class": "com.kony.gen.viz.model.component.KVizButton",
    "DNDConfig": null,
    "_height_": {
        "type": "string",
        "value": "50dp"
    },
    "_left_": {
        "type": "string",
        "value": "200dp"
    },
    "_margin_": [
        6,
        6,
        6,
        6
    ],
    "_padding_": [
        0,
        0,
        0,
        0
    ],
    "_skin_": "s4189c13023b458ea43dfdd518fcb420",
    "_text_": "i",
    "_top_": {
        "type": "string",
        "value": "0"
    },
    "_width_": {
        "type": "string",
        "value": "50dp"
    },
    "canUpdateUI": true,
    "centery": {
        "type": "string",
        "value": "50%"
    },
    "containerweight": 100,
    "contentalignment": 5,
    "displaytext": true,
    "focusskin": "s279adf76da84420ada7167f37a374cf",
    "id": "btnInfo",
    "ide_onClick": "AS_Button_h336af5abba54b1a8412af7e07e061c3",
    "info": null,
    "iscustomlayout": false,
    "isvisible": true,
    "kuid": "b1619fca7ef14d78a66e7dd424d3d2d8",
    "name": "kony.ui.Button",
    "parent": "flxPartyFirstName",
    "pf": "frmPartyPersonalDetails",
    "retaincontentalignment": false,
    "retainflexpositionproperties": false,
    "wType": "Button"
}