{
    "swagger": "2.0",
    "info":
    {
        "description": "Retrieves the country information that is used by the legal entity, either a list of countries or a specific country by ISO 3166-1 alpha-2  code.",
        "version": "v1.0.0",
        "title": "Reference Countries API"
    },
    "host": "api.temenos.com",
    "basePath": "/api/v1.0.0/",
    "schemes": ["https"],
    "paths":
    {
        "/reference/countries":
        {
            "get":
            {
                "operationId": "getCountries",
                "produces": ["application/json"],
                "parameters": [
                {
                    "name": "countryId",
                    "in": "query",
                    "description": "ISO country code of the financial institution. ",
                    "required": false,
                    "type": "string"
                },
                {
                    "name": "apikey",
                    "in": "header",
                    "description": "API Key",
                    "required": true,
                    "type": "string"
                },
                {
                    "name": "page_size",
                    "in": "query",
                    "description": "The total number of records per page",
                    "required": false,
                    "type": "integer",
                    "format": "int32"
                },
                {
                    "name": "page_start",
                    "in": "query",
                    "description": "The record from which the response should be displayed",
                    "required": false,
                    "type": "integer",
                    "format": "int32"
                },
                {
                    "name": "page_token",
                    "in": "query",
                    "description": "Unique id expected to get as part of response from t24 on every enquiry request.",
                    "required": false,
                    "type": "string"
                },
                {
                    "name": "credentials",
                    "in": "header",
                    "required": false,
                    "type": "string"
                },
                {
                    "name": "companyId",
                    "in": "header",
                    "required": false,
                    "type": "string"
                }],
                "responses":
                {
                    "200":
                    {
                        "description": "CountriesResponse",
                        "schema":
                        {
                            "$ref": "#/definitions/CountriesResponse"
                        }
                    },
                    "default":
                    {
                        "description": "QueryErrorResponse",
                        "schema":
                        {
                            "$ref": "#/definitions/QueryErrorResponse"
                        }
                    }
                }
            }
        }
    },
    "securityDefinitions":
    {
        "basicAuth":
        {
            "type": "basic"
        }
    },
    "definitions":
    {
        "QueryHeader":
        {
            "properties":
            {
                "audit":
                {
                    "type": "object",
                    "properties":
                    {
                        "T24_time":
                        {
                            "type": "integer",
                            "format": "int32",
                            "description": "Time taken to response by T24"
                        },
                        "versionNumber":
                        {
                            "type": "string",
                            "description": "The CURR.NO. of the record"
                        },
                        "parse_time":
                        {
                            "type": "integer",
                            "format": "int32",
                            "description": "Time taken to parse the response by IRIS"
                        }
                    }
                },
                "page_size":
                {
                    "type": "integer",
                    "format": "int32",
                    "description": "The total number of records per page"
                },
                "page_start":
                {
                    "type": "integer",
                    "format": "int32",
                    "description": "The record from which the response should be displayed"
                },
                "total_size":
                {
                    "type": "integer",
                    "format": "int32",
                    "description": "The total number of records present"
                },
                "page_token":
                {
                    "type": "string",
                    "description": "Unique id expected to get as part of response from t24 on every enquiry request"
                }
            }
        },
        "CountriesResponse":
        {
            "properties":
            {
                "header":
                {
                    "$ref": "#/definitions/QueryHeader"
                },
                "body":
                {
                    "$ref": "#/definitions/CountriesResponseBody"
                }
            },
            "description": "CountriesResponse"
        },
        "CountriesResponseBody":
        {
            "type": "array",
            "items":
            {
                "type": "object",
                "properties":
                {
                    "countryId":
                    {
                        "type": "string",
                        "description": "ISO country code of the financial institution. ",
                        "maxLength": 9
                    },
                    "displayName":
                    {
                        "type": "string",
                        "description": "Name used for display or enrichment purposes",
                        "maxLength": 35
                    },
                    "countryShortName":
                    {
                        "type": "string",
                        "description": "",
                        "maxLength": 15
                    }
                }
            }
        },
        "ErrorHeader":
        {
            "properties":
            {
                "audit":
                {
                    "type": "object",
                    "properties":
                    {
                        "T24_time":
                        {
                            "type": "integer",
                            "format": "int32",
                            "description": "Time taken to response by T24"
                        },
                        "versionNumber":
                        {
                            "type": "string",
                            "description": "The CURR.NO. of the record"
                        },
                        "parse_time":
                        {
                            "type": "integer",
                            "format": "int32",
                            "description": "Time taken to parse the response by IRIS"
                        }
                    }
                }
            }
        },
        "QueryErrorResponse":
        {
            "properties":
            {
                "header":
                {
                    "$ref": "#/definitions/ErrorHeader"
                },
                "error":
                {
                    "$ref": "#/definitions/QueryErrorResponseBody"
                }
            },
            "description": "QueryErrorResponse"
        },
        "QueryErrorResponseBody":
        {
            "type": "object",
            "properties":
            {
                "code":
                {
                    "type": "string",
                    "description": "The identifier of the error message"
                },
                "message":
                {
                    "type": "string",
                    "description": "The actual t24 error message"
                },
                "type":
                {
                    "type": "string",
                    "description": "The identifier of error type"
                }
            }
        }
    }
}