{
    "DNDConfig": null,
    "_height_": {
        "type": "string",
        "value": "12%"
    },
    "_margin_": [
        0,
        0,
        0,
        0
    ],
    "_orientation_": 6,
    "_padding_": [
        0,
        0,
        0,
        0
    ],
    "_percent_": true,
    "_skin_": "se3ba01a41b84cf8ac57201b98ee3ec5",
    "_top_": {
        "type": "string",
        "value": "0dp"
    },
    "_width_": {
        "type": "string",
        "value": "90%"
    },
    "allboxes": [],
    "canUpdateUI": true,
    "centerx": {
        "type": "string",
        "value": "50%"
    },
    "children": [
        "calIdentityDocumentIssuedDate",
        "calIdentityDocumentExpiryDate",
        "lblInvalidDateRange"
    ],
    "clipbounds": true,
    "containerweight": 100,
    "enablescrolling": true,
    "id": "flxPartyCityZipCode",
    "info": null,
    "iscustomlayout": false,
    "isvisible": true,
    "kuid": "dc7e051c72374f399541e074a1179779",
    "layouttype": 3,
    "name": "kony.ui.FlexContainer",
    "parent": "flxContentDetails",
    "pf": "frmPartyIdentityDetails",
    "responsiveData": {
        "b1": {
            "centerX": {
                "type": "string",
                "value": "50.00%"
            },
            "top": {
                "type": "string",
                "value": "0dp"
            }
        },
        "b2": {
            "height": {
                "type": "string",
                "value": "13%"
            }
        },
        "b3": {
            "height": {
                "type": "string",
                "value": "12%"
            }
        }
    },
    "retaincontentalignment": false,
    "retainflexpositionproperties": false,
    "retainflowhorizontalalignment": false,
    "snapgridsize": 10,
    "snaptogrid": true,
    "wType": "FlexContainer",
    "widgetalignment": 1,
    "zindex": 1
}