{
    "DNDConfig": null,
    "_height_": {
        "type": "string",
        "value": "100%"
    },
    "_left_": {
        "type": "string",
        "value": "0dp"
    },
    "_margin_": [
        0,
        0,
        0,
        0
    ],
    "_orientation_": 6,
    "_padding_": [
        0,
        0,
        0,
        0
    ],
    "_percent_": true,
    "_skin_": "se3ba01a41b84cf8ac57201b98ee3ec5",
    "_top_": {
        "type": "string",
        "value": "0dp"
    },
    "_width_": {
        "type": "string",
        "value": "100%"
    },
    "allboxes": [],
    "canUpdateUI": true,
    "children": [
        "formElementsTitle",
        "flxPartyAddressLine1",
        "flxPartyAddressLine2",
        "formElementsTitle1",
        "flxPartyCountryState",
        "formElementsTitle2",
        "flxPartyCityZipCode"
    ],
    "clipbounds": true,
    "containerweight": 100,
    "enablescrolling": true,
    "id": "flxContentDetails",
    "info": null,
    "iscustomlayout": false,
    "isvisible": true,
    "kuid": "f2d8b1314fe84a84bdb7e4050a0878cf",
    "layouttype": 4,
    "name": "kony.ui.FlexContainer",
    "parent": "flexMainContent",
    "pf": "frmPartyAddressDetails",
    "responsiveData": {
        "b1": {
            "height": {
                "type": "string",
                "value": "70%"
            }
        },
        "b2": {
            "height": {
                "type": "string",
                "value": "70%"
            }
        },
        "b3": {
            "height": {
                "type": "string",
                "value": "70%"
            }
        }
    },
    "retaincontentalignment": false,
    "retainflexpositionproperties": false,
    "retainflowhorizontalalignment": false,
    "snapgridsize": 10,
    "snaptogrid": true,
    "wType": "FlexContainer",
    "widgetalignment": 1
}